%YAML 1.1
%TAG !u! tag:unity3d.com,2011:
--- !u!74 &7400000
AnimationClip:
  m_ObjectHideFlags: 0
  m_CorrespondingSourceObject: {fileID: 0}
  m_PrefabInstance: {fileID: 0}
  m_PrefabAsset: {fileID: 0}
  m_Name: Fire
  serializedVersion: 6
  m_Legacy: 0
  m_Compressed: 0
  m_UseHighQualityCurve: 1
  m_RotationCurves: []
  m_CompressedRotationCurves: []
  m_EulerCurves: []
  m_PositionCurves: []
  m_ScaleCurves: []
  m_FloatCurves: []
  m_PPtrCurves:
  - curve:
    - time: 0
      value: {fileID: 21300000, guid: bc3d0b5137ede0d4ebdb5ede12022683, type: 3}
    - time: 0.016666668
      value: {fileID: 21300000, guid: f2d1d6965487d634a9f0a352a0a0a943, type: 3}
    - time: 0.033333335
      value: {fileID: 21300000, guid: 7a5d505364e03384a80f44fa47382932, type: 3}
    - time: 0.05
      value: {fileID: 21300000, guid: 332e8ff773da5e644a42a77b97245fc3, type: 3}
    - time: 0.06666667
      value: {fileID: 21300000, guid: 5abd6c6022aea53409358d9a873b75d2, type: 3}
    - time: 0.083333336
      value: {fileID: 21300000, guid: 300598738ef5bc8489665cc97d0abcd2, type: 3}
    - time: 0.1
      value: {fileID: 21300000, guid: 7d4fc6fead052ea4f9c5cf005d1bca52, type: 3}
    - time: 0.11666667
      value: {fileID: 21300000, guid: 1f4d06f69c025324b87cb274287cc87d, type: 3}
    - time: 0.13333334
      value: {fileID: 21300000, guid: 5eb5aff2f663fe747ba75bd58a856f75, type: 3}
    - time: 0.15
      value: {fileID: 21300000, guid: dfce7d858eaefeb43b15387e82df3db3, type: 3}
    - time: 0.16666667
      value: {fileID: 21300000, guid: 6e433402c2004a54b9bf9e76013fcf99, type: 3}
    - time: 0.18333334
      value: {fileID: 21300000, guid: 04ca0af046fe6344cbc364450ebbb263, type: 3}
    - time: 0.2
      value: {fileID: 21300000, guid: fd50eb674ef5cf94e98fad2c720ccc51, type: 3}
    - time: 0.21666667
      value: {fileID: 21300000, guid: 02ce1389560f88d4d82742b3ca28c1aa, type: 3}
    - time: 0.23333333
      value: {fileID: 21300000, guid: 74323410dd2251d418d1e1b943041a90, type: 3}
    - time: 0.25
      value: {fileID: 21300000, guid: 21d914c12b5be4048a76561013e608da, type: 3}
    - time: 0.26666668
      value: {fileID: 21300000, guid: 8b43cc06ad2c08246b9a129d4d21b21e, type: 3}
    - time: 0.28333333
      value: {fileID: 21300000, guid: 43c81b11f62f83a439d181a5b09bce7f, type: 3}
    - time: 0.3
      value: {fileID: 21300000, guid: 997cbbe278314644f99d30957594b40d, type: 3}
    - time: 0.31666666
      value: {fileID: 21300000, guid: 6731df32b956e7c40950d6438ec98b38, type: 3}
    - time: 0.33333334
      value: {fileID: 21300000, guid: 38d8694c0f10f2949baf5ea80c810480, type: 3}
    - time: 0.35
      value: {fileID: 21300000, guid: 03a7851d4b69668438e8ecccc933c9a0, type: 3}
    attribute: m_Sprite
    path: 
    classID: 212
    script: {fileID: 0}
  m_SampleRate: 60
  m_WrapMode: 0
  m_Bounds:
    m_Center: {x: 0, y: 0, z: 0}
    m_Extent: {x: 0, y: 0, z: 0}
  m_ClipBindingConstant:
    genericBindings:
    - serializedVersion: 2
      path: 0
      attribute: 0
      script: {fileID: 0}
      typeID: 212
      customType: 23
      isPPtrCurve: 1
    pptrCurveMapping:
    - {fileID: 21300000, guid: bc3d0b5137ede0d4ebdb5ede12022683, type: 3}
    - {fileID: 21300000, guid: f2d1d6965487d634a9f0a352a0a0a943, type: 3}
    - {fileID: 21300000, guid: 7a5d505364e03384a80f44fa47382932, type: 3}
    - {fileID: 21300000, guid: 332e8ff773da5e644a42a77b97245fc3, type: 3}
    - {fileID: 21300000, guid: 5abd6c6022aea53409358d9a873b75d2, type: 3}
    - {fileID: 21300000, guid: 300598738ef5bc8489665cc97d0abcd2, type: 3}
    - {fileID: 21300000, guid: 7d4fc6fead052ea4f9c5cf005d1bca52, type: 3}
    - {fileID: 21300000, guid: 1f4d06f69c025324b87cb274287cc87d, type: 3}
    - {fileID: 21300000, guid: 5eb5aff2f663fe747ba75bd58a856f75, type: 3}
    - {fileID: 21300000, guid: dfce7d858eaefeb43b15387e82df3db3, type: 3}
    - {fileID: 21300000, guid: 6e433402c2004a54b9bf9e76013fcf99, type: 3}
    - {fileID: 21300000, guid: 04ca0af046fe6344cbc364450ebbb263, type: 3}
    - {fileID: 21300000, guid: fd50eb674ef5cf94e98fad2c720ccc51, type: 3}
    - {fileID: 21300000, guid: 02ce1389560f88d4d82742b3ca28c1aa, type: 3}
    - {fileID: 21300000, guid: 74323410dd2251d418d1e1b943041a90, type: 3}
    - {fileID: 21300000, guid: 21d914c12b5be4048a76561013e608da, type: 3}
    - {fileID: 21300000, guid: 8b43cc06ad2c08246b9a129d4d21b21e, type: 3}
    - {fileID: 21300000, guid: 43c81b11f62f83a439d181a5b09bce7f, type: 3}
    - {fileID: 21300000, guid: 997cbbe278314644f99d30957594b40d, type: 3}
    - {fileID: 21300000, guid: 6731df32b956e7c40950d6438ec98b38, type: 3}
    - {fileID: 21300000, guid: 38d8694c0f10f2949baf5ea80c810480, type: 3}
    - {fileID: 21300000, guid: 03a7851d4b69668438e8ecccc933c9a0, type: 3}
  m_AnimationClipSettings:
    serializedVersion: 2
    m_AdditiveReferencePoseClip: {fileID: 0}
    m_AdditiveReferencePoseTime: 0
    m_StartTime: 0
    m_StopTime: 0.36666667
    m_OrientationOffsetY: 0
    m_Level: 0
    m_CycleOffset: 0
    m_HasAdditiveReferencePose: 0
    m_LoopTime: 0
    m_LoopBlend: 0
    m_LoopBlendOrientation: 0
    m_LoopBlendPositionY: 0
    m_LoopBlendPositionXZ: 0
    m_KeepOriginalOrientation: 0
    m_KeepOriginalPositionY: 1
    m_KeepOriginalPositionXZ: 0
    m_HeightFromFeet: 0
    m_Mirror: 0
  m_EditorCurves: []
  m_EulerEditorCurves: []
  m_HasGenericRootTransform: 0
  m_HasMotionFloatCurves: 0
  m_Events: []
